%YAML 1.1
%TAG !u! tag:unity3d.com,2011:
--- !u!1045 &1
EditorBuildSettings:
  m_ObjectHideFlags: 0
  serializedVersion: 2
  m_Scenes:
  - enabled: 1
    path: Assets/____Scenes/Menu.unity
  - enabled: 1
    path: Assets/____Scenes/IntMenu.unity
  - enabled: 1
    path: Assets/____Scenes/RandIntro.unity
  - enabled: 1
    path: Assets/____Scenes/Story1.unity
  - enabled: 1
    path: Assets/____Scenes/RandomGame.unity
  - enabled: 1
    path: Assets/____Scenes/BossFight.unity
